{
  "name": "dkzr/satis",
  "homepage": "https://composer.example.com/",
  "require-all": true,
  "providers": true,
  "repositories": [
    { "type": "vcs", "url": "url-to-some-repositorie.git" },
    {
      "type": "package",
      "package": {
        "type": "library",
        "version": "dev-master",
        "name": "abandoned/name",
        "abandoned": "replacement/name",
        "source": { "type": "vcs", "reference": "dev-master", "url": "url-to-your-replacement-repository.git" }
      }
    }
  ]
}
